[npc]
Goldenrod Citizen
left
270
6
3
NULL
0
-1
0,1
false
false
false
[/npc]
[npc]
Goldenrod Citizen
down
122
3
4
NULL
0
-1
2,3
false
false
false
[/npc]
[warp]
3
8
35
9
-5
0
0
[/warp]
