[npc]
NULL
down
0
17
8
NULL
0
-1
0
false
false
false
[/npc]
[npc]
NULL
down
0
20
12
NULL
0
-1
1,2
false
false
false
[/npc]
[npc]
NULL
down
0
14
16
NULL
0
-1
3
false
false
false
[/npc]
[npc]
Ruins of Alph Visitor
left
278
15
17
NULL
0
-1
4,5
false
false
false
[/npc]
[npc]
Police Officer
down
363
16
8
NULL
0
-1
6,7
false
false
false
[/npc]
[npc]
Police Officer
down
363
18
34
NULL
0
-1
6,7
false
false
false
[/npc]
[npc]
Police Officer
down
363
3
30
NULL
0
-1
6,7
false
false
false
[/npc]
[npc]
Police Officer
down
363
4
18
NULL
0
-1
6,7
false
false
false
[/npc]
[npc]
Psychic Nathan
down
321
6
20
Girafarig,26
1
-1
8
false
false
false
[/npc]
[warp]
20
21
3
4
-3
-1
0
[/warp]
[warp]
20
20
3
3
-3
-1
0
[/warp]
[warp]
9
2
41
15
-4
-2
0
[/warp]
[warp]
10
2
42
15
-4
-2
0
[/warp]
[warp]
8
27
4
22
-50
-40
0
[/warp]
[warp]
8
19
4
14
-50
-40
0
[/warp]
[warp]
12
13
10
14
-36
-50
0
[/warp]
[warp]
19
11
13
12
-48
-26
0
[/warp]
