[npc]
NULL
down
0
14
12
NULL
0
-1
0
true
false
false
[/npc]
[npc]
Nurse Joy
down
157
14
11
NULL
0
-1
1
false
false
false
[/npc]
[npc]
NULL
down
0
18
10
NULL
0
-1
2
false
true
false
[/npc]
[npc]
Shop Keeper
right
185
1
7
NULL
0
-1
3
false
false
true
[/npc]
[npc]
NULL
down
0
2
7
NULL
0
-1
3
false
false
true
[/npc]
[warp]
12
18
18
6
35
23
0
[/warp]
[warp]
5
2
21
23
-46
4
0
[/warp]
