[npc]
Citizen
left
274
8
4
NULL
0
-1
0,1
false
false
false
[/npc]
[npc]
Daughter
down
262
3
5
NULL
0
-1
2
false
false
false
[/npc]
[npc]
NULL
down
0
8
1
NULL
0
-1
3,4
false
false
false
[/npc]
[warp]
5
8
25
12
3
-1
0
[/warp]