[npc]
Pokemon League Officer
down
36
20
10
NULL
0
-1
3,4
false
false
false
[/npc]
[npc]
Ticket_Vendor
right
36
12
24
NULL
0
-1
0,4
false
false
false
[/npc]
[warp]
19
28
8
6
2
-1
0
[/warp]
[warp]
19
9
8
153
2
-2
0
[/warp]
[warp]
11
24
52
27
1
1
0
[/warp]