[npc]
Girl
down
266
8
2
NULL
0
-1
0,1
false
false
false
[/npc]
[npc]
Boy
left
122
10
5
NULL
0
-1
2
false
false
false
[/npc]
[npc]
Youngster
right
354
4
5
NULL
0
-1
3,4
false
false
false
[/npc]
[npc]
NULL
down
0
6
4
NULL
0
-1
5
false
false
false
[/npc]
[npc]
Mr. Fuji
down
322
4
3
NULL
0
-1
6
false
false
false
[/npc]
[warp]
5
8
10
12
8
-2
0
[/warp]