[npc]
Safari Zone employee
up
278
3
2
NULL
0
-1
0,1
false
false
false
[/npc]
[npc]
Safari Zone employee
right
279
5
4
NULL
0
-1
2,3
false
false
false
[/npc]
[npc]
Safari Zone employee
left
351
9
9
NULL
0
-1
4
false
false
false
[/npc]
[warp]
7
12
28
17
12
17
0
[/warp]