[npc]
Fanclub member
down
262
7
12
NULL
0
-1
0
false
false
false
[/npc]
[npc]
Fanclub member
left
373
8
14
NULL
0
-1
1,2
false
false
false
[/npc]
[npc]
Fanclub member
right
261
4
14
NULL
0
-1
3,4
false
false
false
[/npc]
[npc]
Fanclub member
right
280
4
13
NULL
0
-1
5,6,7
false
false
false
[/npc]
[warp]
6
17
47
22
6
-2
0
[/warp]