[npc]
NPC
down
47
27
76
NULL
0
-1
9
false
false
false
[/npc]
[npc]
NPC
left
47
13
69
NULL
0
-1
6,7
false
false
false
[/npc]
[npc]
NPC
down
47
7
74
NULL
0
-1
4,5
false
false
false
[/npc]
[npc]
NPC
down
47
21
80
NULL
0
-1
3
false
false
false
[/npc]
[npc]
NPC
LEFT
47
23
86
NULL
0
-1
1,2
false
false
false
[/npc]
[npc]
NULL
down
47
17
82
NULL
0
-1
0
false
false
false
[/npc]
[warp]
20
91
15
16
4
-49
0
[/warp]
[warp]
28
82
5
7
4
-50
0
[/warp]
[warp]
15
80
10
8
-39
-27
0
[/warp]
[warp]
29
91
10
8
-39
-31
0
[/warp]
[warp]
24
75
12
11
-39
-25
0
[/warp]
[warp]
6
66
38
86
-38
-21
0
[/warp]
[warp]
7
66
39
86
-38
-21
0
[/warp]
[warp]
24
28
74
35
-38
-21
0
[/warp]
[warp]
25
28
75
35
-38
-21
0
[/warp]


