[npc]
NPC
down
47
28
23
NULL
0
-1
0,1,2
false
false
false
[/npc]
[npc]
NULL
down
47
14
25
NULL
0
-1
3
false
false
false
[/npc]
[npc]
NULL
down
47
22
26
NULL
0
-1
2
false
false
false
[/npc]
[npc]
NULL
down
47
27
13
NULL
0
-1
7
false
false
false
[/npc]
[npc]
NULL
down
47
20
13
NULL
0
-1
6
false
false
false
[/npc]
[npc]
NULL
down
47
5
14
NULL
0
-1
5
false
false
false
[/npc]
[warp]
17
13
15
16
3
-49
0
[/warp]
[warp]
29
14
5
7
3
-50
0
[/warp]
[warp]
29
14
5
7
3
-50
0
[/warp]
[warp]
7
25
9
10
-39
-44
0
[/warp]
[warp]
8
13
15
17
-39
-43
0
[/warp]
[warp]
16
25
22
9
-39
-23
0
[/warp]
[warp]
29
13
5
7
-46
-26
0
[/warp]









