[warp]
57
11
4
7
43
-41
0
[/warp]
[warp]
16
13
15
16
8
-49
0
[/warp]
[warp]
13
40
5
7
8
-50
0
[/warp]
[warp]
26
6
4
24
29
-47
0
[/warp]
[warp]
27
6
4
24
29
-47
0
[/warp]
[warp]
28
6
4
24
29
-47
0
[/warp]
[warp]
5
26
18
46
-46
48
0
[/warp]
[warp]
3
42
8
9
-38
-25
0
[/warp]
[warp]
15
33
10
8
-38
-29
0
[/warp]
[warp]
28
33
21
14
-38
-47
0
[/warp]
[warp]
17
22
10
8
-38
-44
0
[/warp]
[warp]
41
17
8
9
-38
-45
0
[/warp]


