[warp]
99
44
11
18
47
4
0
[/warp]
[warp]
89
44
68
42
47
6
0
[/warp]
[warp]
61
49
58
25
47
5
0
[/warp]
[warp]
58
26
61
50
47
5
0
[/warp]
[warp]
68
49
66
25
47
5
0
[/warp]
[warp]
66
26
68
50
47
5
0
[/warp]
[warp]
75
49
74
25
47
5
0
[/warp]
[warp]
74
26
75
50
47
5
0
[/warp]
[warp]
82
49
82
25
47
5
0
[/warp]
[warp]
82
26
82
50
47
5
0
[/warp]
[warp]
61
65
58
82
47
5
0
[/warp]
[warp]
58
81
61
64
47
5
0
[/warp]
[warp]
68
65
66
82
47
5
0
[/warp]
[warp]
66
81
68
64
47
5
0
[/warp]
[warp]
75
65
74
82
47
5
0
[/warp]
[warp]
74
81
75
64
47
5
0
[/warp]
[warp]
82
65
82
82
47
5
0
[/warp]
[warp]
82
81
82
64
47
5
0
[/warp]
[npc]
Kathy
down
232
21
47
Starmie,50
1
-1
0
false
false
false
[/npc]
[npc]
NULL
down
263
39
49
NULL
0
-1
1
false
false
false
[/npc]
[npc]
NULL
up
266
33
61
NULL
0
-1
2
false
false
false
[/npc]
[npc]
NULL
left
265
60
85
NULL
0
-1
3
false
false
false
[/npc]
[npc]
Rodrigo
up
268
66
83
Toxicroak,50,Charizard,50
2
-1
4
false
false
false
[/npc]
[npc]
NULL
left
270
84
86
NULL
0
-1
5
false
false
false
[/npc]
[npc]
NULL
down
276
57
18
NULL
0
-1
6
false
false
false
[/npc]
[npc]
NULL
right
334
75
21
NULL
0
-1
7
false
false
false
[/npc]
[npc]
NULL
right
363
67
60
NULL
0
-1
8
false
false
false
[/npc]
[npc]
NULL
down
363
92
53
NULL
0
-1
8
false
false
false
[/npc]
[npc]
NULL
down
363
130
57
NULL
0
-1
9
false
false
false
[/npc]


