info face="Quartz MS" size=24 bold=0 italic=0 charset="" unicode=1 stretchH=100 smooth=1 aa=1 padding=0,0,0,0 spacing=1,1 outline=0
common lineHeight=24 base=21 scaleW=256 scaleH=256 pages=1 packed=0 alphaChnl=0 redChnl=3 greenChnl=3 blueChnl=3
page id=0 file="dex-large_0.png"
chars count=95
char id=32   x=131   y=100   width=5     height=24    xoffset=0     yoffset=0     xadvance=5     page=0  chnl=15
char id=33   x=112   y=100   width=6     height=24    xoffset=0     yoffset=0     xadvance=6     page=0  chnl=15
char id=34   x=248   y=75    width=7     height=24    xoffset=0     yoffset=0     xadvance=7     page=0  chnl=15
char id=35   x=119   y=0     width=15    height=24    xoffset=0     yoffset=0     xadvance=15    page=0  chnl=15
char id=36   x=208   y=0     width=13    height=24    xoffset=0     yoffset=0     xadvance=13    page=0  chnl=15
char id=37   x=84    y=0     width=17    height=24    xoffset=0     yoffset=0     xadvance=17    page=0  chnl=15
char id=38   x=150   y=0     width=14    height=24    xoffset=0     yoffset=0     xadvance=14    page=0  chnl=15
char id=39   x=251   y=25    width=4     height=24    xoffset=0     yoffset=0     xadvance=4     page=0  chnl=15
char id=40   x=82    y=100   width=8     height=24    xoffset=0     yoffset=0     xadvance=8     page=0  chnl=15
char id=41   x=73    y=100   width=8     height=24    xoffset=0     yoffset=0     xadvance=8     page=0  chnl=15
char id=42   x=63    y=100   width=9     height=24    xoffset=0     yoffset=0     xadvance=9     page=0  chnl=15
char id=43   x=180   y=0     width=13    height=24    xoffset=0     yoffset=0     xadvance=13    page=0  chnl=15
char id=44   x=125   y=100   width=5     height=24    xoffset=0     yoffset=0     xadvance=5     page=0  chnl=15
char id=45   x=247   y=50    width=8     height=24    xoffset=0     yoffset=0     xadvance=8     page=0  chnl=15
char id=46   x=91    y=100   width=6     height=24    xoffset=0     yoffset=0     xadvance=6     page=0  chnl=15
char id=47   x=23    y=100   width=9     height=24    xoffset=0     yoffset=0     xadvance=9     page=0  chnl=15
char id=48   x=199   y=25    width=12    height=24    xoffset=0     yoffset=0     xadvance=12    page=0  chnl=15
char id=49   x=212   y=25    width=12    height=24    xoffset=0     yoffset=0     xadvance=12    page=0  chnl=15
char id=50   x=225   y=25    width=12    height=24    xoffset=0     yoffset=0     xadvance=12    page=0  chnl=15
char id=51   x=194   y=0     width=13    height=24    xoffset=0     yoffset=0     xadvance=13    page=0  chnl=15
char id=52   x=238   y=25    width=12    height=24    xoffset=0     yoffset=0     xadvance=12    page=0  chnl=15
char id=53   x=0     y=50    width=12    height=24    xoffset=0     yoffset=0     xadvance=12    page=0  chnl=15
char id=54   x=134   y=25    width=12    height=24    xoffset=0     yoffset=0     xadvance=12    page=0  chnl=15
char id=55   x=0     y=25    width=13    height=24    xoffset=0     yoffset=0     xadvance=13    page=0  chnl=15
char id=56   x=13    y=50    width=12    height=24    xoffset=0     yoffset=0     xadvance=12    page=0  chnl=15
char id=57   x=26    y=50    width=12    height=24    xoffset=0     yoffset=0     xadvance=12    page=0  chnl=15
char id=58   x=105   y=100   width=6     height=24    xoffset=0     yoffset=0     xadvance=6     page=0  chnl=15
char id=59   x=98    y=100   width=6     height=24    xoffset=0     yoffset=0     xadvance=6     page=0  chnl=15
char id=60   x=39    y=50    width=12    height=24    xoffset=0     yoffset=0     xadvance=12    page=0  chnl=15
char id=61   x=52    y=50    width=12    height=24    xoffset=0     yoffset=0     xadvance=12    page=0  chnl=15
char id=62   x=65    y=50    width=12    height=24    xoffset=0     yoffset=0     xadvance=12    page=0  chnl=15
char id=63   x=176   y=75    width=11    height=24    xoffset=0     yoffset=0     xadvance=11    page=0  chnl=15
char id=64   x=102   y=0     width=16    height=24    xoffset=0     yoffset=0     xadvance=16    page=0  chnl=15
char id=65   x=78    y=50    width=12    height=24    xoffset=0     yoffset=0     xadvance=12    page=0  chnl=15
char id=66   x=91    y=50    width=12    height=24    xoffset=0     yoffset=0     xadvance=12    page=0  chnl=15
char id=67   x=164   y=75    width=11    height=24    xoffset=0     yoffset=0     xadvance=11    page=0  chnl=15
char id=68   x=104   y=50    width=12    height=24    xoffset=0     yoffset=0     xadvance=12    page=0  chnl=15
char id=69   x=224   y=75    width=11    height=24    xoffset=0     yoffset=0     xadvance=11    page=0  chnl=15
char id=70   x=188   y=75    width=11    height=24    xoffset=0     yoffset=0     xadvance=11    page=0  chnl=15
char id=71   x=117   y=50    width=12    height=24    xoffset=0     yoffset=0     xadvance=12    page=0  chnl=15
char id=72   x=130   y=50    width=12    height=24    xoffset=0     yoffset=0     xadvance=12    page=0  chnl=15
char id=73   x=119   y=100   width=5     height=24    xoffset=0     yoffset=0     xadvance=5     page=0  chnl=15
char id=74   x=143   y=50    width=12    height=24    xoffset=0     yoffset=0     xadvance=12    page=0  chnl=15
char id=75   x=236   y=75    width=11    height=24    xoffset=0     yoffset=0     xadvance=11    page=0  chnl=15
char id=76   x=140   y=75    width=11    height=24    xoffset=0     yoffset=0     xadvance=11    page=0  chnl=15
char id=77   x=21    y=0     width=20    height=24    xoffset=0     yoffset=0     xadvance=20    page=0  chnl=15
char id=78   x=156   y=50    width=12    height=24    xoffset=0     yoffset=0     xadvance=12    page=0  chnl=15
char id=79   x=169   y=50    width=12    height=24    xoffset=0     yoffset=0     xadvance=12    page=0  chnl=15
char id=80   x=182   y=50    width=12    height=24    xoffset=0     yoffset=0     xadvance=12    page=0  chnl=15
char id=81   x=195   y=50    width=12    height=24    xoffset=0     yoffset=0     xadvance=12    page=0  chnl=15
char id=82   x=208   y=50    width=12    height=24    xoffset=0     yoffset=0     xadvance=12    page=0  chnl=15
char id=83   x=221   y=50    width=12    height=24    xoffset=0     yoffset=0     xadvance=12    page=0  chnl=15
char id=84   x=135   y=0     width=14    height=24    xoffset=0     yoffset=0     xadvance=14    page=0  chnl=15
char id=85   x=234   y=50    width=12    height=24    xoffset=0     yoffset=0     xadvance=12    page=0  chnl=15
char id=86   x=0     y=75    width=12    height=24    xoffset=0     yoffset=0     xadvance=12    page=0  chnl=15
char id=87   x=63    y=0     width=20    height=24    xoffset=0     yoffset=0     xadvance=20    page=0  chnl=15
char id=88   x=222   y=0     width=13    height=24    xoffset=0     yoffset=0     xadvance=13    page=0  chnl=15
char id=89   x=42    y=25    width=13    height=24    xoffset=0     yoffset=0     xadvance=13    page=0  chnl=15
char id=90   x=13    y=75    width=12    height=24    xoffset=0     yoffset=0     xadvance=12    page=0  chnl=15
char id=91   x=33    y=100   width=9     height=24    xoffset=0     yoffset=0     xadvance=9     page=0  chnl=15
char id=92   x=43    y=100   width=9     height=24    xoffset=0     yoffset=0     xadvance=9     page=0  chnl=15
char id=93   x=53    y=100   width=9     height=24    xoffset=0     yoffset=0     xadvance=9     page=0  chnl=15
char id=94   x=26    y=75    width=12    height=24    xoffset=0     yoffset=0     xadvance=12    page=0  chnl=15
char id=95   x=12    y=100   width=10    height=24    xoffset=0     yoffset=0     xadvance=10    page=0  chnl=15
char id=96   x=250   y=0     width=5     height=24    xoffset=0     yoffset=0     xadvance=5     page=0  chnl=15
char id=97   x=39    y=75    width=12    height=24    xoffset=0     yoffset=0     xadvance=12    page=0  chnl=15
char id=98   x=52    y=75    width=12    height=24    xoffset=0     yoffset=0     xadvance=12    page=0  chnl=15
char id=99   x=152   y=75    width=11    height=24    xoffset=0     yoffset=0     xadvance=11    page=0  chnl=15
char id=100  x=65    y=75    width=12    height=24    xoffset=0     yoffset=0     xadvance=12    page=0  chnl=15
char id=101  x=128   y=75    width=11    height=24    xoffset=0     yoffset=0     xadvance=11    page=0  chnl=15
char id=102  x=104   y=75    width=11    height=24    xoffset=0     yoffset=0     xadvance=11    page=0  chnl=15
char id=103  x=78    y=75    width=12    height=24    xoffset=0     yoffset=0     xadvance=12    page=0  chnl=15
char id=104  x=121   y=25    width=12    height=24    xoffset=0     yoffset=0     xadvance=12    page=0  chnl=15
char id=105  x=143   y=100   width=5     height=24    xoffset=0     yoffset=0     xadvance=5     page=0  chnl=15
char id=106  x=91    y=75    width=12    height=24    xoffset=0     yoffset=0     xadvance=12    page=0  chnl=15
char id=107  x=200   y=75    width=11    height=24    xoffset=0     yoffset=0     xadvance=11    page=0  chnl=15
char id=108  x=212   y=75    width=11    height=24    xoffset=0     yoffset=0     xadvance=11    page=0  chnl=15
char id=109  x=0     y=0     width=20    height=24    xoffset=0     yoffset=0     xadvance=20    page=0  chnl=15
char id=110  x=56    y=25    width=12    height=24    xoffset=0     yoffset=0     xadvance=12    page=0  chnl=15
char id=111  x=69    y=25    width=12    height=24    xoffset=0     yoffset=0     xadvance=12    page=0  chnl=15
char id=112  x=82    y=25    width=12    height=24    xoffset=0     yoffset=0     xadvance=12    page=0  chnl=15
char id=113  x=95    y=25    width=12    height=24    xoffset=0     yoffset=0     xadvance=12    page=0  chnl=15
char id=114  x=108   y=25    width=12    height=24    xoffset=0     yoffset=0     xadvance=12    page=0  chnl=15
char id=115  x=186   y=25    width=12    height=24    xoffset=0     yoffset=0     xadvance=12    page=0  chnl=15
char id=116  x=165   y=0     width=14    height=24    xoffset=0     yoffset=0     xadvance=14    page=0  chnl=15
char id=117  x=147   y=25    width=12    height=24    xoffset=0     yoffset=0     xadvance=12    page=0  chnl=15
char id=118  x=160   y=25    width=12    height=24    xoffset=0     yoffset=0     xadvance=12    page=0  chnl=15
char id=119  x=42    y=0     width=20    height=24    xoffset=0     yoffset=0     xadvance=20    page=0  chnl=15
char id=120  x=14    y=25    width=13    height=24    xoffset=0     yoffset=0     xadvance=13    page=0  chnl=15
char id=121  x=236   y=0     width=13    height=24    xoffset=0     yoffset=0     xadvance=13    page=0  chnl=15
char id=122  x=173   y=25    width=12    height=24    xoffset=0     yoffset=0     xadvance=12    page=0  chnl=15
char id=123  x=116   y=75    width=11    height=24    xoffset=0     yoffset=0     xadvance=11    page=0  chnl=15
char id=124  x=137   y=100   width=5     height=24    xoffset=0     yoffset=0     xadvance=5     page=0  chnl=15
char id=125  x=0     y=100   width=11    height=24    xoffset=0     yoffset=0     xadvance=11    page=0  chnl=15
char id=126  x=28    y=25    width=13    height=24    xoffset=0     yoffset=0     xadvance=13    page=0  chnl=15
